[gd_scene load_steps=2 format=2]

[ext_resource path="res://hud/cutscene_box/cutscene_box.gd" type="Script" id=1]

[node name="cutscene_box" type="Node2D"]

script = ExtResource( 1 )
name1 = "Speaker 1"
image1 = null
name2 = "Speaker 2"
image2 = null
text = "Oh

Noes.


HAHAHA!"

[node name="name1" type="Polygon2D" parent="." index="0"]

position = Vector2( -400, -50 )
polygon = PoolVector2Array( 50, 10, 50, -10, -50, -10, -50, 10 )
uv = PoolVector2Array(  )
color = Color( 0.160156, 0.160156, 0.160156, 0.862745 )
vertex_colors = PoolColorArray(  )
offset = Vector2( 0, 0 )
antialiased = false
texture = null
texture_offset = Vector2( 0, 0 )
texture_scale = Vector2( 1, 1 )
texture_rotation_degrees = 0.0
invert_enable = false
invert_border = 100.0
_sections_unfolded = [ "Transform" ]

[node name="Label" type="Label" parent="name1" index="0"]

anchor_left = 0.0
anchor_top = 0.0
anchor_right = 0.0
anchor_bottom = 0.0
margin_left = -50.0
margin_top = -10.0
margin_right = 50.0
margin_bottom = 10.0
rect_pivot_offset = Vector2( 0, 0 )
rect_clip_content = false
mouse_filter = 2
mouse_default_cursor_shape = 0
size_flags_horizontal = 1
size_flags_vertical = 4
align = 1
valign = 1
percent_visible = 1.0
lines_skipped = 0
max_lines_visible = -1
_sections_unfolded = [ "Rect" ]

[node name="Sprite" type="Sprite" parent="name1" index="1"]

position = Vector2( 120, -100 )
z_index = -1
_sections_unfolded = [ "Transform", "Z Index" ]

[node name="name2" type="Polygon2D" parent="." index="1"]

position = Vector2( 400, -50 )
polygon = PoolVector2Array( 50, 10, 50, -10, -50, -10, -50, 10 )
uv = PoolVector2Array(  )
color = Color( 0.156863, 0.156863, 0.156863, 0.862745 )
vertex_colors = PoolColorArray(  )
offset = Vector2( 0, 0 )
antialiased = false
texture = null
texture_offset = Vector2( 0, 0 )
texture_scale = Vector2( 1, 1 )
texture_rotation_degrees = 0.0
invert_enable = false
invert_border = 100.0
_sections_unfolded = [ "Transform" ]

[node name="Label" type="Label" parent="name2" index="0"]

anchor_left = 0.0
anchor_top = 0.0
anchor_right = 0.0
anchor_bottom = 0.0
margin_left = -50.0
margin_top = -10.0
margin_right = 50.0
margin_bottom = 10.0
rect_pivot_offset = Vector2( 0, 0 )
rect_clip_content = false
mouse_filter = 2
mouse_default_cursor_shape = 0
size_flags_horizontal = 1
size_flags_vertical = 4
align = 1
valign = 1
percent_visible = 1.0
lines_skipped = 0
max_lines_visible = -1

[node name="Sprite" type="Sprite" parent="name2" index="1"]

position = Vector2( -120, -100 )
z_index = -1
_sections_unfolded = [ "Transform", "Z Index" ]


