[gd_scene load_steps=4 format=2]

[ext_resource path="res://entities/devices/switch/switch.gd" type="Script" id=1]
[ext_resource path="res://entities/devices/switch/switch.png" type="Texture" id=2]

[sub_resource type="RectangleShape2D" id=1]

custom_solver_bias = 0.0
extents = Vector2( 8.19859, 7.89283 )

[node name="switch" type="Area2D"]

input_pickable = true
gravity_vec = Vector2( 0, 1 )
gravity = 98.0
linear_damp = 0.1
angular_damp = 1.0
collision_layer = 128
collision_mask = 6
audio_bus_override = false
audio_bus_name = "Master"
script = ExtResource( 1 )
_sections_unfolded = [ "Collision" ]
toggle = false

[node name="Sprite" type="Sprite" parent="." index="0"]

texture = ExtResource( 2 )
hframes = 2
_sections_unfolded = [ "Animation" ]

[node name="CollisionShape2D" type="CollisionShape2D" parent="." index="1"]

position = Vector2( -0.451019, 0.151844 )
shape = SubResource( 1 )

[node name="Timer" type="Timer" parent="." index="2"]

process_mode = 1
wait_time = 0.5
one_shot = true
autostart = false

[connection signal="body_entered" from="." to="." method="_on_switch_body_entered"]

[connection signal="timeout" from="Timer" to="." method="_on_Timer_timeout"]


