[gd_scene load_steps=4 format=2]

[ext_resource path="res://entities/hazards/projectile/Projectile.gd" type="Script" id=1]
[ext_resource path="res://entities/hazards/hitbox.tscn" type="PackedScene" id=2]
[ext_resource path="res://entities/hazards/projectile/ProjectileAnimation.gd" type="Script" id=3]

[node name="Projectile" type="KinematicBody2D"]

input_pickable = false
collision_layer = 0
collision_mask = 161
collision/safe_margin = 0.08
script = ExtResource( 1 )
_sections_unfolded = [ "Collision" ]
facing = 0
pixels_per_second = 32

[node name="DamageArea" parent="." index="0" instance=ExtResource( 2 )]

collision_mask = 10

[node name="ProjectileAnimation" type="AnimationPlayer" parent="." index="1"]

root_node = NodePath("..")
autoplay = ""
playback_process_mode = 1
playback_default_blend_time = 0.0
playback_speed = 1.0
blend_times = [  ]
script = ExtResource( 3 )

[connection signal="body_entered" from="DamageArea" to="." method="_hit"]


